^C:\USERS\TABOL\SOURCE\REPOS\CONSOLEAPPLICATION18\CONSOLEAPPLICATION18.CPP
C:\USERS\TABOL\SOURCE\REPOS\CONSOLEAPPLICATION18\X64\DEBUG\VC143.PDB
C:\USERS\TABOL\SOURCE\REPOS\CONSOLEAPPLICATION18\X64\DEBUG\VC143.IDB
C:\USERS\TABOL\SOURCE\REPOS\CONSOLEAPPLICATION18\X64\DEBUG\CONSOLEAPPLICATION18.OBJ
